[
  {
    "title": "Getting Started",
    "pages": [
      { "title": "Overview", "route": "/" },
      { "title": "Roadmap", "route": "/roadmap" },
    ]
  },
  // {
  //   "title": "Course",
  //   "pages": [
  //     { "title": "Overview", "route": "/course" },
  //     { "title": "Logic", "route": "/course/logic" },
  //     { "title": "Test", "route": "/course/test" },
  //   ]
  // },
]